[
    {
        "id": 1,
        "slug": "taunt\n",
        "name": "Taunt",
        "refText": "Enemies must attack minions that have Taunt.",
        "text": "Enemies must attack this minion.",
        "gameModes": [
            1,
            2,
            4,
            5,
            6,
            7
        ]
    },
    {
        "id": 2,
        "slug": "spell-damage\n",
        "name": "Spell Damage",
        "refText": "Your spells deal extra damage.",
        "text": "Your spell cards deal extra damage.",
        "gameModes": [
            1,
            4,
            5,
            6
        ]
    },
    {
        "id": 3,
        "slug": "divine-shield\n",
        "name": "Divine Shield",
        "refText": "The first time a Shielded minion takes damage, ignore it.",
        "text": "The first time this minion takes damage, ignore it.",
        "gameModes": [
            1,
            2,
            4,
            5,
            6
        ]
    },
    {
        "id": 4,
        "slug": "charge\n",
        "name": "Charge",
        "refText": "Can attack immediately.",
        "text": "Can attack immediately.",
        "gameModes": [
            1,
            4,
            5,
            6
        ]
    },
    {
        "id": 5,
        "slug": "secret\n",
        "name": "Secret",
        "refText": "Hidden until a specific action occurs on your opponent's turn.",
        "text": "Hidden until a specific action occurs on your opponent's turn.",
        "gameModes": [
            1,
            4,
            5,
            6
        ]
    },
    {
        "id": 6,
        "slug": "stealth\n",
        "name": "Stealth",
        "refText": "Can't be attacked or targeted until it attacks.",
        "text": "Can't be attacked or targeted until it attacks.",
        "gameModes": [
            1,
            2,
            4,
            5,
            6
        ]
    },
    {
        "id": 8,
        "slug": "battlecry\n",
        "name": "Battlecry",
        "refText": "Does something when you play it from your hand.",
        "text": "Does something when you play it from your hand.",
        "gameModes": [
            1,
            2,
            4,
            5,
            6,
            7
        ]
    },
    {
        "id": 10,
        "slug": "freeze\n",
        "name": "Freeze",
        "refText": "Frozen characters lose their next attack.",
        "text": "Frozen characters lose their next attack.",
        "gameModes": [
            1,
            4,
            5,
            6
        ]
    },
    {
        "id": 11,
        "slug": "windfury\n",
        "name": "Windfury",
        "refText": "Can attack twice each turn.",
        "text": "Can attack twice each turn.",
        "gameModes": [
            1,
            2,
            4,
            5,
            6
        ]
    },
    {
        "id": 12,
        "slug": "deathrattle\n",
        "name": "Deathrattle",
        "refText": "Does something when it dies.",
        "text": "Does something when it dies.",
        "gameModes": [
            1,
            2,
            4,
            5,
            6,
            7
        ]
    },
    {
        "id": 13,
        "slug": "combo\n",
        "name": "Combo",
        "refText": "A bonus if you already played a card this turn.",
        "text": "A bonus if you already played a card this turn.",
        "gameModes": [
            1,
            4,
            5,
            6
        ]
    },
    {
        "id": 14,
        "slug": "overload:-x\n",
        "name": "Overload: X",
        "refText": "Cards with Overload limit your mana next turn.",
        "text": "You have X less mana next turn.",
        "gameModes": [
            1,
            4,
            5,
            6
        ]
    },
    {
        "id": 15,
        "slug": "silence\n",
        "name": "Silence",
        "refText": "Removes all card text and enchantments.",
        "text": "Removes all card text and enchantments.",
        "gameModes": [
            1,
            4,
            5,
            6
        ]
    },
    {
        "id": 16,
        "slug": "counter\n",
        "name": "Counter",
        "refText": "A card that is Countered has no effect.",
        "text": "A card that is Countered has no effect.",
        "gameModes": [
            1,
            4,
            5,
            6
        ]
    },
    {
        "id": 17,
        "slug": "immune\n",
        "name": "Immune",
        "refText": "Immune characters can't be damaged.",
        "text": "Can't be damaged.",
        "gameModes": [
            1,
            2,
            4,
            5,
            6
        ]
    },
    {
        "id": 19,
        "slug": "spare-parts\n",
        "name": "Spare Parts",
        "refText": "Spare Parts are 1-Cost spells with minor effects.",
        "text": "Spare Parts are 1-Cost spells with minor effects.",
        "gameModes": [
            1,
            4
        ]
    },
    {
        "id": 20,
        "slug": "inspire\n",
        "name": "Inspire",
        "refText": "Does something after you use your Hero Power.",
        "text": "Does something after you use your Hero Power.",
        "gameModes": [
            1
        ]
    },
    {
        "id": 21,
        "slug": "discover\n",
        "name": "Discover",
        "refText": "Choose one of three cards to add to your hand.",
        "text": "Choose one of three cards to add to your hand.",
        "gameModes": [
            1,
            2,
            4,
            5
        ]
    },
    {
        "id": 31,
        "slug": "quest\n",
        "name": "Quest",
        "refText": "Starts in your hand. Complete for a reward.",
        "text": "Starts in your hand. Complete for a reward.",
        "gameModes": [
            1,
            2,
            4
        ]
    },
    {
        "id": 32,
        "slug": "poisonous\n",
        "name": "Poisonous",
        "refText": "Destroy any minion damaged by this.",
        "text": "Destroy any minion damaged by this.",
        "gameModes": [
            1,
            2,
            4,
            5
        ]
    },
    {
        "id": 34,
        "slug": "adapt\n",
        "name": "Adapt",
        "refText": "Choose one of 3 bonuses.",
        "text": "Choose one of 3 bonuses.",
        "gameModes": [
            1,
            4
        ]
    },
    {
        "id": 38,
        "slug": "lifesteal\n",
        "name": "Lifesteal",
        "refText": "Damage dealt also heals your hero.",
        "text": "Damage dealt also heals your hero.",
        "gameModes": [
            1,
            4,
            5
        ]
    },
    {
        "id": 39,
        "slug": "recruit\n",
        "name": "Recruit",
        "refText": "Summon a minion from your deck.",
        "text": "Summon a minion from your deck.",
        "gameModes": [
            1,
            4
        ]
    },
    {
        "id": 52,
        "slug": "echo\n",
        "name": "Echo",
        "refText": "Repeatable the turn you play this. Copies can't cost less than (1).",
        "text": "Repeatable the turn you play this. Copies can't cost less than (1).",
        "gameModes": [
            1,
            4
        ]
    },
    {
        "id": 53,
        "slug": "rush\n",
        "name": "Rush",
        "refText": "Can attack minions immediately.",
        "text": "Can attack minions immediately.",
        "gameModes": [
            1,
            4,
            5
        ]
    },
    {
        "id": 61,
        "slug": "overkill\n",
        "name": "Overkill",
        "refText": "Deal excess damage on your turn for a bonus.",
        "text": "Deal excess damage on your turn for a bonus.",
        "gameModes": [
            1
        ]
    },
    {
        "id": 64,
        "slug": "start-of-game\n",
        "name": "Start of Game",
        "refText": "Does something before the first turn.",
        "text": "Does something before the first turn.",
        "gameModes": [
            1,
            4,
            5
        ]
    },
    {
        "id": 66,
        "slug": "magnetic\n",
        "name": "Magnetic",
        "refText": "Play this to the left of a Mech to fuse them together!",
        "text": "Play this to the left of a Mech to fuse them together!",
        "gameModes": [
            1,
            2,
            4,
            5
        ]
    },
    {
        "id": 71,
        "slug": "lackey\n",
        "name": "Lackey",
        "refText": "Lackeys are 1-Cost minions with Battlecries.",
        "text": "Lackeys are 1-Cost minions with Battlecries.",
        "gameModes": [
            1,
            4
        ]
    },
    {
        "id": 76,
        "slug": "twinspell\n",
        "name": "Twinspell",
        "refText": "Can be cast twice.",
        "text": "Can be cast twice.",
        "gameModes": [
            1
        ]
    },
    {
        "id": 77,
        "slug": "mega-windfury\n",
        "name": "Mega-Windfury",
        "refText": "Can attack four times each turn.",
        "text": "Can attack four times each turn.",
        "gameModes": [
            1,
            5
        ]
    },
    {
        "id": 78,
        "slug": "reborn\n",
        "name": "Reborn",
        "refText": "Resurrects with 1 Health the first time it dies.",
        "text": "Resurrects with 1 Health the first time it dies.",
        "gameModes": [
            1,
            2,
            4,
            5
        ]
    },
    {
        "id": 79,
        "slug": "invoke\n",
        "name": "Invoke",
        "refText": "Use Galakrond's Power.",
        "text": "Use Galakrond's Power.",
        "gameModes": [
            1
        ]
    },
    {
        "id": 86,
        "slug": "outcast\n",
        "name": "Outcast",
        "refText": "A bonus if played as the left- or right-most card in hand.",
        "text": "A bonus if played as the left- or right-most card in hand.",
        "gameModes": [
            1,
            4,
            5
        ]
    },
    {
        "id": 88,
        "slug": "spellburst\n",
        "name": "Spellburst",
        "refText": "A one-time effect after you cast a spell.",
        "text": "A one-time effect after you cast a spell.",
        "gameModes": [
            1,
            4
        ]
    },
    {
        "id": 89,
        "slug": "sidequest\n",
        "name": "Sidequest",
        "refText": "Complete for a reward.",
        "text": "Complete for a reward.",
        "gameModes": [
            1
        ]
    },
    {
        "id": 91,
        "slug": "corrupt\n",
        "name": "Corrupt",
        "refText": "Upgrades in hand after you play a card that costs more.",
        "text": "Upgrades in hand after you play a card that costs more.",
        "gameModes": [
            1,
            4
        ]
    },
    {
        "id": 96,
        "slug": "questline\n",
        "name": "Questline",
        "refText": "Starts in your hand. Complete for a reward, up to 3 times!",
        "text": "Starts in your hand. Complete for a reward, up to 3 times!",
        "gameModes": [
            1,
            4
        ]
    },
    {
        "id": 97,
        "slug": "tradeable\n",
        "name": "Tradeable",
        "refText": "Drag this into your deck to spend 1 Mana and draw a new card.",
        "text": "Drag this into your deck to spend 1 Mana and draw a new card.",
        "gameModes": [
            1,
            4,
            5
        ]
    },
    {
        "id": 99,
        "slug": "frenzy\n",
        "name": "Frenzy",
        "refText": "A one-time effect after this survives damage.",
        "text": "A one-time effect after this survives damage.",
        "gameModes": [
            1,
            4
        ]
    },
    {
        "id": 100,
        "slug": "honorable-kill\n",
        "name": "Honorable Kill",
        "refText": "Deal exact lethal damage on your turn for a bonus.",
        "text": "Deal exact lethal damage on your turn for a bonus.",
        "gameModes": [
            1,
            4
        ]
    },
    {
        "id": 104,
        "slug": "nature-spell-damage\n",
        "name": "Nature Spell Damage",
        "refText": "Your Nature spells deal extra damage.",
        "text": "Your Nature spell cards deal extra damage.",
        "gameModes": [
            1,
            4
        ]
    },
    {
        "id": 109,
        "slug": "blood-gem\n",
        "name": "Blood Gem",
        "refText": "A spell that gives a minion .",
        "text": "A spell that gives a minion .",
        "gameModes": [
            2
        ]
    },
    {
        "id": 196,
        "slug": "refresh\n",
        "name": "Refresh",
        "refText": "Replace the Tavern with new cards.",
        "text": "Replace the Tavern with new cards.",
        "gameModes": [
            2
        ]
    },
    {
        "id": 198,
        "slug": "avenge-(x)\n",
        "name": "Avenge (X)",
        "refText": "Does something after X friendly minions die in combat.",
        "text": "Does something after X friendly minions die in combat.",
        "gameModes": [
            2
        ]
    },
    {
        "id": 231,
        "slug": "colossal-+x\n",
        "name": "Colossal +X",
        "refText": "When summoned, spawns X additional appendages.",
        "text": "When summoned, spawns X additional appendages.",
        "gameModes": [
            1,
            4,
            5
        ]
    },
    {
        "id": 232,
        "slug": "dredge\n",
        "name": "Dredge",
        "refText": "Look at the bottom 3 cards of your deck. Put one on top.",
        "text": "Look at the bottom 3 cards of your deck. Put one on top.",
        "gameModes": [
            1,
            4,
            5
        ]
    },
    {
        "id": 234,
        "slug": "spellcraft\n",
        "name": "Spellcraft",
        "refText": "Get a temporary spell every turn.",
        "text": "Get a temporary spell every turn.",
        "gameModes": [
            2
        ]
    },
    {
        "id": 235,
        "slug": "allied\n",
        "name": "Allied",
        "refText": "Your hero becomes the Allied class after you select this treasure.",
        "text": "Your hero becomes the Allied class after you select this treasure.",
        "gameModes": [
            4
        ]
    },
    {
        "id": 238,
        "slug": "infuse\n",
        "name": "Infuse",
        "refText": "Upgrades in hand after X friendly minions die.",
        "text": "Upgrades in hand after X friendly minions die.",
        "gameModes": [
            1,
            4,
            5
        ]
    },
    {
        "id": 247,
        "slug": "corpse\n",
        "name": "Corpse",
        "refText": "Resource gained when a friendly minion dies.",
        "text": "Resource gained when a friendly minion dies.",
        "gameModes": [
            1,
            4,
            5
        ]
    },
    {
        "id": 252,
        "slug": "stealth\n",
        "name": "Stealth",
        "refText": "Can't be attacked until it attacks.",
        "text": "Can't be attacked until it attacks.",
        "gameModes": [
            2
        ]
    },
    {
        "id": 255,
        "slug": "finale\n",
        "name": "Finale",
        "refText": "A bonus if this spends all your remaining Mana.",
        "text": "A bonus if this spends all your remaining Mana.",
        "gameModes": [
            1,
            5
        ]
    },
    {
        "id": 256,
        "slug": "overheal\n",
        "name": "Overheal",
        "refText": "A bonus if restored past full Health.",
        "text": "A bonus if restored past full Health.",
        "gameModes": [
            1,
            4,
            5
        ]
    },
    {
        "id": 257,
        "slug": "manathirst-(x)\n",
        "name": "Manathirst (X)",
        "refText": "A bonus if you have X Mana Crystals.",
        "text": "A bonus if you have X Mana Crystals.",
        "gameModes": [
            1,
            4,
            5
        ]
    },
    {
        "id": 261,
        "slug": "venomous\n",
        "name": "Venomous",
        "refText": "Destroy the first minion this deals damage to.",
        "text": "Destroy the first minion this deals damage to.",
        "gameModes": [
            2
        ]
    },
    {
        "id": 265,
        "slug": "elusive",
        "name": "Elusive",
        "refText": "Can't be targeted by spells or Hero Powers.",
        "text": "Can't be targeted by spells or Hero Powers.",
        "gameModes": [
            1,
            5
        ]
    },
    {
        "id": 266,
        "slug": "forge\t\t\n",
        "name": "Forge",
        "refText": "Drag this to your deck to spend (2) Mana for an upgrade.",
        "text": "Drag this to your deck to spend (2) Mana for an upgrade.",
        "gameModes": [
            1,
            5
        ]
    },
    {
        "id": 270,
        "slug": "titan\n",
        "name": "Titan",
        "refText": "Click on a Titan to use 1 of 3 abilities instead of attacking.",
        "text": "Click on a Titan to use 1 of 3 abilities instead of attacking.",
        "gameModes": [
            1,
            5
        ]
    },
    {
        "id": 294,
        "slug": "miniaturize",
        "name": "Miniaturize",
        "refText": "Get a 1-Cost 1/1 copy of this.",
        "text": "Get a 1-Cost 1/1 copy of this.",
        "gameModes": [
            1,
            5
        ]
    },
    {
        "id": 295,
        "slug": "mini",
        "name": "Mini",
        "refText": "A 1-Cost 1/1 copy of another card.",
        "text": "A 1-Cost 1/1 copy of another card.",
        "gameModes": [
            1,
            5
        ]
    },
    {
        "id": 297,
        "slug": "quickdraw\n",
        "name": "Quickdraw",
        "refText": "A bonus if this entered your hand this turn.",
        "text": "A bonus if this entered your hand this turn.",
        "gameModes": [
            1,
            5
        ]
    },
    {
        "id": 298,
        "slug": "excavate\n",
        "name": "Excavate",
        "refText": "Dig for increasingly rarer treasures. Resets after the highest Rarity.",
        "text": "Dig for increasingly rarer treasures. Resets after the highest Rarity.",
        "gameModes": [
            1,
            5
        ]
    }
]